{
  "pins": {
    "nixpkgs": {
      "type": "Channel",
      "name": "nixpkgs-unstable",
      "url": "https://releases.nixos.org/nixpkgs/nixpkgs-24.05pre595213.d40e866b1f98/nixexprs.tar.xz",
      "hash": "17b9wf9mbq5vnl5ibvxhn1r67i12rkhw32rb2ls6s9dr1l9imgxx"
    }
  },
  "version": 3
}